$ su
# rpm -ivh cndrvcups-common-2.00-2.x86_64.rpm
# rpm -ivh cndrvcups-capt-2.00-2.x86_64.rpm
# /etc/init.d/cups restart
# /usr/sbin/lpadmin -p LBP2900 -m CNCUPSLBP2900CAPTK.ppd -v ccp:/var/ccpd/fifo0 -E
# /usr/sbin/ccpdadmin -p LBP2900 -o /dev/usb/lp0

# /etc/init.d/ccpd start


